…
The boxplots confirms what we saw in the table.

Exploration 3: How is life expectancy changing over time on different continents?
---------------------------------------------------------------------------------

Let's calculate the mean life expectancy per country first to get a sense of the data.

``` r
gapminder %>% 
  group_by(continent, year) %>% 
  summarize(lifeExpMean = round(mean(lifeExp),0))
```

    ## # A tibble: 60 x 3
    ## # Groups:   continent [?]
    ##    continent  year lifeExpMean
    ##    <fct>     <int>       <dbl>
    ##  1 Africa     1952          39
    ##  2 Africa     1957          41
    ##  3 Africa     1962          43
    ##  4 Africa     1967          45
    ##  5 Africa     1972          47
    ##  6 Africa     1977          50
    ##  7 Africa     1982          52
    ##  8 Africa     1987          53
    ##  9 Africa     1992          54
    ## 10 Africa     1997          54
    ## # ... with 50 more rows
…
